-- Merging decision tree log ---
manifest
ADDED from /Users/jonathanfisher/oppen/ariane/ariadne/src/main/AndroidManifest.xml:2:1-12:12
INJECTED from /Users/jonathanfisher/oppen/ariane/ariadne/src/main/AndroidManifest.xml:2:1-12:12
INJECTED from /Users/jonathanfisher/oppen/ariane/ariadne/src/main/AndroidManifest.xml:2:1-12:12
	package
		ADDED from /Users/jonathanfisher/oppen/ariane/ariadne/src/main/AndroidManifest.xml:3:5-28
		INJECTED from /Users/jonathanfisher/oppen/ariane/ariadne/src/main/AndroidManifest.xml
		INJECTED from /Users/jonathanfisher/oppen/ariane/ariadne/src/main/AndroidManifest.xml
	xmlns:android
		ADDED from /Users/jonathanfisher/oppen/ariane/ariadne/src/main/AndroidManifest.xml:2:11-69
application
ADDED from /Users/jonathanfisher/oppen/ariane/ariadne/src/main/AndroidManifest.xml:5:5-10:38
	android:supportsRtl
		ADDED from /Users/jonathanfisher/oppen/ariane/ariadne/src/main/AndroidManifest.xml:10:9-35
	android:label
		ADDED from /Users/jonathanfisher/oppen/ariane/ariadne/src/main/AndroidManifest.xml:8:9-41
	android:allowBackup
		ADDED from /Users/jonathanfisher/oppen/ariane/ariadne/src/main/AndroidManifest.xml:6:9-35
uses-sdk
INJECTED from /Users/jonathanfisher/oppen/ariane/ariadne/src/main/AndroidManifest.xml reason: use-sdk injection requested
INJECTED from /Users/jonathanfisher/oppen/ariane/ariadne/src/main/AndroidManifest.xml
INJECTED from /Users/jonathanfisher/oppen/ariane/ariadne/src/main/AndroidManifest.xml
INJECTED from /Users/jonathanfisher/oppen/ariane/ariadne/src/main/AndroidManifest.xml
INJECTED from /Users/jonathanfisher/oppen/ariane/ariadne/src/main/AndroidManifest.xml
	android:targetSdkVersion
		INJECTED from /Users/jonathanfisher/oppen/ariane/ariadne/src/main/AndroidManifest.xml
		ADDED from /Users/jonathanfisher/oppen/ariane/ariadne/src/main/AndroidManifest.xml
		INJECTED from /Users/jonathanfisher/oppen/ariane/ariadne/src/main/AndroidManifest.xml
	android:minSdkVersion
		INJECTED from /Users/jonathanfisher/oppen/ariane/ariadne/src/main/AndroidManifest.xml
		ADDED from /Users/jonathanfisher/oppen/ariane/ariadne/src/main/AndroidManifest.xml
		INJECTED from /Users/jonathanfisher/oppen/ariane/ariadne/src/main/AndroidManifest.xml
